{
    "net.minecraft.client.gui.screens.inventory.ContainerScreen": {
        "buttonHints": {
            "MOVE_TO_PLAYER": {
                "horizontalOffset": 13
            },
            "SORT": {
                "horizontalOffset": 13
            },
            "SORT_COLUMNS": {
                "horizontalOffset": 13
            },
            "SORT_ROWS": {
                "horizontalOffset": 13
            }
        }
    }
}